precondition `CombatShip1' is true
precondition `CombatShip2' is true
precondition `CombatShip3' is true
postcondition `CombatShip4' is true
postcondition `CombatShip5' is true
precondition `CombatShip1' is true
precondition `CombatShip2' is true
precondition `CombatShip3' is true
postcondition `CombatShip4' is true
postcondition `CombatShip5' is true
precondition `CombatShip1' is true
precondition `CombatShip2' is true
precondition `CombatShip3' is true
postcondition `CombatShip4' is true
postcondition `CombatShip5' is true
precondition `CombatShip1' is true
precondition `CombatShip2' is true
precondition `CombatShip3' is true
postcondition `CombatShip4' is true
postcondition `CombatShip5' is true
precondition `CombatShip1' is true
precondition `CombatShip2' is true
precondition `CombatShip3' is true
postcondition `CombatShip4' is true
postcondition `CombatShip5' is true
precondition `CombatShip1' is false
precondition `CombatShip2' is true
precondition `CombatShip3' is true
Error: precondition false in operation call `CombatShip::equip(self:s2, weapon:w6)'.
checking structure...
checking invariants...
checking invariant (1) `Blaster::Weapon1': OK.
checking invariant (2) `CombatShip::CombatShip6': OK.
checking invariant (3) `CommandCenter::CommandCenter1': OK.
checking invariant (4) `CommandCenter::CommandCenter2': OK.
checking invariant (5) `CommandCenter::CommandCenter3': OK.
checking invariant (6) `Item::Item1': OK.
checking invariant (7) `Ship::Ship1': OK.
checking invariant (8) `Ship::Ship2': OK.
checking invariant (9) `Ship::Ship3': OK.
checking invariant (10) `Ship::Ship4': OK.
checking invariant (11) `Ship::Ship5': OK.
checking invariant (12) `TransportShip::TransportShip1': OK.
checking invariant (13) `TransportShip::TransportShip2': OK.
checking invariant (14) `TransportShip::TransportShip3': OK.
checked 14 invariants, 0 failures.
